{
	"backtraceGraph" : 
	{
		"commands" : 
		[
			"install"
		],
		"files" : 
		[
			"muparser/CMakeLists.txt"
		],
		"nodes" : 
		[
			{
				"file" : 0
			},
			{
				"command" : 0,
				"file" : 0,
				"line" : 83,
				"parent" : 0
			},
			{
				"command" : 0,
				"file" : 0,
				"line" : 91,
				"parent" : 0
			},
			{
				"command" : 0,
				"file" : 0,
				"line" : 115,
				"parent" : 0
			},
			{
				"command" : 0,
				"file" : 0,
				"line" : 120,
				"parent" : 0
			},
			{
				"command" : 0,
				"file" : 0,
				"line" : 137,
				"parent" : 0
			}
		]
	},
	"installers" : 
	[
		{
			"backtrace" : 1,
			"component" : "RuntimeLibraries",
			"destination" : "lib",
			"paths" : 
			[
				"muparser/libmuparser.2.3.4.dylib",
				"muparser/libmuparser.2.dylib"
			],
			"targetId" : "muparser::@6f46e1c3a54ac5aad0e5",
			"targetIndex" : 31,
			"targetInstallNamelink" : "skip",
			"type" : "target"
		},
		{
			"backtrace" : 1,
			"component" : "RuntimeLibraries",
			"destination" : "lib",
			"paths" : 
			[
				"muparser/libmuparser.dylib"
			],
			"targetId" : "muparser::@6f46e1c3a54ac5aad0e5",
			"targetIndex" : 31,
			"targetInstallNamelink" : "only",
			"type" : "target"
		},
		{
			"backtrace" : 2,
			"component" : "Development",
			"destination" : "include",
			"paths" : 
			[
				"muparser/include/muParser.h",
				"muparser/include/muParserBase.h",
				"muparser/include/muParserBytecode.h",
				"muparser/include/muParserCallback.h",
				"muparser/include/muParserDLL.h",
				"muparser/include/muParserDef.h",
				"muparser/include/muParserError.h",
				"muparser/include/muParserFixes.h",
				"muparser/include/muParserInt.h",
				"muparser/include/muParserTemplateMagic.h",
				"muparser/include/muParserTest.h",
				"muparser/include/muParserToken.h",
				"muparser/include/muParserTokenReader.h"
			],
			"type" : "file"
		},
		{
			"backtrace" : 3,
			"component" : "Unspecified",
			"destination" : "lib/cmake/muparser",
			"exportName" : "muparser-export",
			"exportTargets" : 
			[
				{
					"id" : "muparser::@6f46e1c3a54ac5aad0e5",
					"index" : 31
				}
			],
			"paths" : 
			[
				"muparser/CMakeFiles/Export/f4bad9bb078ad8062c3d1d8d4dc8f96d/muparser-targets.cmake"
			],
			"type" : "export"
		},
		{
			"backtrace" : 4,
			"component" : "Development",
			"destination" : "lib/cmake/muparser",
			"paths" : 
			[
				"muparser/muparserConfig.cmake",
				"muparser/muparserConfigVersion.cmake"
			],
			"type" : "file"
		},
		{
			"backtrace" : 5,
			"component" : "Unspecified",
			"destination" : "lib/pkgconfig",
			"paths" : 
			[
				"muparser.pc"
			],
			"type" : "file"
		}
	],
	"paths" : 
	{
		"build" : "muparser",
		"source" : "muparser"
	}
}
