{
	"backtrace" : 5,
	"backtraceGraph" : 
	{
		"commands" : 
		[
			"add_custom_target",
			"include"
		],
		"files" : 
		[
			"/Applications/CLion.app/Contents/bin/cmake/mac/share/cmake-3.26/Modules/CTestTargets.cmake",
			"/Applications/CLion.app/Contents/bin/cmake/mac/share/cmake-3.26/Modules/CTest.cmake",
			"muparser/CMakeLists.txt"
		],
		"nodes" : 
		[
			{
				"file" : 2
			},
			{
				"command" : 1,
				"file" : 2,
				"line" : 142,
				"parent" : 0
			},
			{
				"file" : 1,
				"parent" : 1
			},
			{
				"command" : 1,
				"file" : 1,
				"line" : 264,
				"parent" : 2
			},
			{
				"file" : 0,
				"parent" : 3
			},
			{
				"command" : 0,
				"file" : 0,
				"line" : 59,
				"parent" : 4
			}
		]
	},
	"folder" : 
	{
		"name" : "CTestDashboardTargets"
	},
	"id" : "Experimental::@6f46e1c3a54ac5aad0e5",
	"name" : "Experimental",
	"paths" : 
	{
		"build" : "muparser",
		"source" : "muparser"
	},
	"sourceGroups" : 
	[
		{
			"name" : "",
			"sourceIndexes" : 
			[
				0
			]
		},
		{
			"name" : "CMake Rules",
			"sourceIndexes" : 
			[
				1
			]
		}
	],
	"sources" : 
	[
		{
			"backtrace" : 5,
			"isGenerated" : true,
			"path" : "muparser/CMakeFiles/Experimental",
			"sourceGroupIndex" : 0
		},
		{
			"backtrace" : 0,
			"isGenerated" : true,
			"path" : "muparser/CMakeFiles/Experimental.rule",
			"sourceGroupIndex" : 1
		}
	],
	"type" : "UTILITY"
}
